*** Settings ***
Resource          GlobleKeywords.txt
Library           Collections
Library           DateTime
Library           Dialogs
Library           OperatingSystem
Library           String
Library           SeleniumLibrary
Library           AppiumLibrary
Library           ExcelRobot
Library           NodeRobot
Library           Mainframe3270
